,59.86733,10.65948,41.8,,,,
,59.82422,10.66463,163,,,,
,59.82922,10.68523,106.7,,,,
,59.84423,10.6818,61.8,,,,
,59.85509,10.67116,57.2,,,,
,59.85302,10.65365,68.9,,,,
,59.85182,10.65365,75.1,,,,
,59.8497,10.65399,97.3,,,,
,59.84771,10.65485,97.5,,,,
,59.84676,10.65536,99.7,,,,
,59.84444,10.65622,101.1,,,,
,59.83952,10.65811,152.3,,,,
,59.83383,10.6588,182.7,,,,
,59.82865,10.6588,185.8,,,,
,59.84987,10.71321,-1.2,,,,
,59.85444,10.67854,25,,,,
,59.8459,10.66875,80.4,,,,
,59.83685,10.67734,95.6,,,,
,59.83253,10.69227,56,,,,
,59.83279,10.71476,-7.4,,,,
